[gd_scene load_steps=5 format=2]

[ext_resource path="res://icon.png" type="Texture" id=1]
[ext_resource path="res://scripts/dump.gd" type="Script" id=2]
[ext_resource path="res://assets/dump.png" type="Texture" id=3]

[sub_resource type="RectangleShape2D" id=1]
extents = Vector2( 31, 31.5 )

[node name="Dump" type="Area2D" groups=[
"dump",
]]
script = ExtResource( 2 )

[node name="Sprite" type="Sprite" parent="."]
visible = false
texture = ExtResource( 1 )

[node name="CollisionShape2D" type="CollisionShape2D" parent="."]
shape = SubResource( 1 )

[node name="Label" type="Label" parent="."]
margin_left = -32.0
margin_top = -59.4716
margin_right = 28.0
margin_bottom = -45.4716
text = "Bodies: 0"
__meta__ = {
"_edit_use_anchors_": false
}

[node name="dump" type="Sprite" parent="."]
position = Vector2( -50.7918, -8.41302 )
texture = ExtResource( 3 )

[node name="CPUParticles2D" type="CPUParticles2D" parent="."]
position = Vector2( -36.8829, 0 )
emission_shape = 2
emission_rect_extents = Vector2( 81.26, 1 )
direction = Vector2( 0, -1 )
spread = 0.0
gravity = Vector2( 0, 0 )
initial_velocity = 40.0
tangential_accel = 35.53
tangential_accel_random = 1.0
scale_amount = 3.0
color = Color( 0.278431, 0.54902, 0.74902, 1 )
