[gd_scene load_steps=2 format=2]

[sub_resource type="RectangleShape2D" id=1]
extents = Vector2( 1280, 10 )

[node name="Ground" type="StaticBody2D" groups=[
"floor",
]]
position = Vector2( 640, 720 )
collision_layer = 524289
collision_mask = 524289

[node name="CollisionShape2D" type="CollisionShape2D" parent="."]
shape = SubResource( 1 )
