[gd_resource type="AtlasTexture" load_steps=2 format=2]

[ext_resource path="res://assets/triangle-dude/triangle-dude-spritesheet.png" type="Texture" id=1]

[resource]
flags = 4
atlas = ExtResource( 1 )
region = Rect2( 170, 123, 10, 31 )
